[gd_scene load_steps=3 format=2]

[ext_resource path="res://assets/new/Rod.mp3" type="AudioStream" id=1]
[ext_resource path="res://scripts/new_scripts/SFX_Rod.gd" type="Script" id=2]

[node name="AudioStreamPlayer" type="AudioStreamPlayer"]
stream = ExtResource( 1 )
script = ExtResource( 2 )
