[gd_scene load_steps=2 format=2]

[ext_resource path="res://assets/new/Respawn.mp3" type="AudioStream" id=1]

[node name="AudioStreamPlayer" type="AudioStreamPlayer"]
stream = ExtResource( 1 )
volume_db = -15.0
